Week 4
…
Today we will use the following packages:

dplyr: use the functions select(), filter() and arrange()

magrittr: use the pipe operator %>%

Example

Inspect the file mcap20210221.xlsx.

library(dplyr)
library(readxl)
read_excel("data/w4/mcap20210221.xlsx", sheet = "global100b") # i put my data in the subfolder w4

## # A tibble: 157 x 5
##    `Updated at 19:~ `Company Common~ `Company Market~ `Country of Hea~
##    <chr>            <chr>                       <dbl> <chr>           
##  1 DE.N             Deere & Co                   104. United States o~
##  2 VOWG_p.DE        Volkswagen AG                110. Germany         
##  3 AXP.N            American Expres~             106. United States o~
##  4 IBM.N            International B~             106. United States o~
##  5 UNP.N            Union Pacific C~             140. United States o~
##  6 AAPL.OQ          Apple Inc                   2180. United States o~
##  7 MCD.N            Mcdonald's Corp              158. United States o~
##  8 NKE.N            Nike Inc                     224. United States o~
##  9 TSLA.OQ          Tesla Inc                    750. United States o~
## 10 PRX.AS           Prosus NV                    212. Netherlands     
## # ... with 147 more rows, and 1 more variable: `TRBC Industry Name` <chr>
…
## [1] "tbl_df"     "tbl"        "data.frame"

#########
# Rename
########
names(df_global)

## [1] "Updated at 19:02:34"     "Company Common Name"    
## [3] "Company Market Cap"      "Country of Headquarters"
## [5] "TRBC Industry Name"

# We can use column position or name
rename(df_global, code = 1) 

## # A tibble: 157 x 5
##    code   `Company Common N~ `Company Market ~ `Country of Hea~ `TRBC Industry ~
##    <chr>  <chr>                          <dbl> <chr>            <chr>           
##  1 DE.N   Deere & Co                      104. United States o~ Heavy Machinery~
##  2 VOWG_~ Volkswagen AG                   110. Germany          Auto & Truck Ma~
##  3 AXP.N  American Express ~              106. United States o~ Consumer Lending
##  4 IBM.N  International Bus~              106. United States o~ IT Services & C~
##  5 UNP.N  Union Pacific Corp              140. United States o~ Ground Freight ~
##  6 AAPL.~ Apple Inc                      2180. United States o~ Phones & Handhe~
##  7 MCD.N  Mcdonald's Corp                 158. United States o~ Restaurants & B~
##  8 NKE.N  Nike Inc                        224. United States o~ Footwear        
##  9 TSLA.~ Tesla Inc                       750. United States o~ Auto & Truck Ma~
## 10 PRX.AS Prosus NV                       212. Netherlands      Online Services 
## # ... with 147 more rows

rename(df_global, mcap = "Company Market Cap") 

## # A tibble: 157 x 5
##    `Updated at 19:0~ `Company Common N~  mcap `Country of Head~ `TRBC Industry ~
##    <chr>             <chr>              <dbl> <chr>             <chr>           
##  1 DE.N              Deere & Co          104. United States of~ Heavy Machinery~
##  2 VOWG_p.DE         Volkswagen AG       110. Germany           Auto & Truck Ma~
##  3 AXP.N             American Express ~  106. United States of~ Consumer Lending
##  4 IBM.N             International Bus~  106. United States of~ IT Services & C~
##  5 UNP.N             Union Pacific Corp  140. United States of~ Ground Freight ~
##  6 AAPL.OQ           Apple Inc          2180. United States of~ Phones & Handhe~
##  7 MCD.N             Mcdonald's Corp     158. United States of~ Restaurants & B~
##  8 NKE.N             Nike Inc            224. United States of~ Footwear        
##  9 TSLA.OQ           Tesla Inc           750. United States of~ Auto & Truck Ma~
## 10 PRX.AS            Prosus NV           212. Netherlands       Online Services 
## # ... with 147 more rows
…
## [1] "Updated at 19:02:34"     "Company Common Name"    
## [3] "Company Market Cap"      "Country of Headquarters"
## [5] "TRBC Industry Name"

df_global %>% 
  rename(code = 1,
         cname = "Company Common Name",
         mcap = "Company Market Cap",
         country = "Country of Headquarters",
         industry = "TRBC Industry Name")

## # A tibble: 157 x 5
##    code     cname                     mcap country           industry           
##    <chr>    <chr>                    <dbl> <chr>             <chr>              
##  1 DE.N     Deere & Co                104. United States of~ Heavy Machinery & ~
##  2 VOWG_p.~ Volkswagen AG             110. Germany           Auto & Truck Manuf~
##  3 AXP.N    American Express Co       106. United States of~ Consumer Lending   
##  4 IBM.N    International Business ~  106. United States of~ IT Services & Cons~
##  5 UNP.N    Union Pacific Corp        140. United States of~ Ground Freight & L~
##  6 AAPL.OQ  Apple Inc                2180. United States of~ Phones & Handheld ~
##  7 MCD.N    Mcdonald's Corp           158. United States of~ Restaurants & Bars 
##  8 NKE.N    Nike Inc                  224. United States of~ Footwear           
##  9 TSLA.OQ  Tesla Inc                 750. United States of~ Auto & Truck Manuf~
## 10 PRX.AS   Prosus NV                 212. Netherlands       Online Services    
## # ... with 147 more rows
…
##############################
# keep only required variables
##############################
# suppose we only need cname and mcap
df_global %>% 
  select(cname, mcap)

## # A tibble: 157 x 2
##    cname                                 mcap
##    <chr>                                <dbl>
##  1 Deere & Co                            104.
##  2 Volkswagen AG                         110.
##  3 American Express Co                   106.
##  4 International Business Machines Corp  106.
##  5 Union Pacific Corp                    140.
##  6 Apple Inc                            2180.
##  7 Mcdonald's Corp                       158.
##  8 Nike Inc                              224.
##  9 Tesla Inc                             750.
## 10 Prosus NV                             212.
## # ... with 147 more rows
…
